<?xml version="1.0" encoding="UTF-8"?>
<session version="1.0">
<refactoring comment="Rename resource &apos;numj/indings.js&apos; to &apos;bindings.js&apos;" description="Rename resource &apos;indings.js&apos;" flags="7" id="org.eclipse.ltk.core.refactoring.rename.resource" input="indings.js" name="bindings.js" stamp="1530555378587" updateReferences="true"/>
</session>